{
    "href": "https://api.spotify.com/v1/artists/0TnOYISbd1XYRBk9myaseg/albums?offset=5&limit=10&include_groups=single,appears_on&market=ES",
    "items": [
      {
        "album_group": "single",
        "album_type": "single",
        "artists": [
          {
            "external_urls": {
              "spotify": "https://open.spotify.com/artist/0TnOYISbd1XYRBk9myaseg"
            },
            "href": "https://api.spotify.com/v1/artists/0TnOYISbd1XYRBk9myaseg",
            "id": "0TnOYISbd1XYRBk9myaseg",
            "name": "Pitbull",
            "type": "artist",
            "uri": "spotify:artist:0TnOYISbd1XYRBk9myaseg"
          },
          {
            "external_urls": {
              "spotify": "https://open.spotify.com/artist/4VMYDCV2IEDYJArk749S6m"
            },
            "href": "https://api.spotify.com/v1/artists/4VMYDCV2IEDYJArk749S6m",
            "id": "4VMYDCV2IEDYJArk749S6m",
            "name": "Daddy Yankee",
            "type": "artist",
            "uri": "spotify:artist:4VMYDCV2IEDYJArk749S6m"
          },
          {
            "external_urls": {
              "spotify": "https://open.spotify.com/artist/1GDbiv3spRmZ1XdM1jQbT7"
            },
            "href": "https://api.spotify.com/v1/artists/1GDbiv3spRmZ1XdM1jQbT7",
            "id": "1GDbiv3spRmZ1XdM1jQbT7",
            "name": "Natti Natasha",
            "type": "artist",
            "uri": "spotify:artist:1GDbiv3spRmZ1XdM1jQbT7"
          }
        ],
        "external_urls": {
          "spotify": "https://open.spotify.com/album/4K6B1KumSxNR0SfbLk66N9"
        },
        "href": "https://api.spotify.com/v1/albums/4K6B1KumSxNR0SfbLk66N9",
        "id": "4K6B1KumSxNR0SfbLk66N9",
        "images": [
          {
            "height": 640,
            "url": "https://i.scdn.co/image/ab67616d0000b273ebe5b3413aa954a502770c76",
            "width": 640
          },
          {
            "height": 300,
            "url": "https://i.scdn.co/image/ab67616d00001e02ebe5b3413aa954a502770c76",
            "width": 300
          },
          {
            "height": 64,
            "url": "https://i.scdn.co/image/ab67616d00004851ebe5b3413aa954a502770c76",
            "width": 64
          }
        ],
        "name": "No Lo Trates",
        "release_date": "2019-04-26",
        "release_date_precision": "day",
        "total_tracks": 1,
        "type": "album",
        "uri": "spotify:album:4K6B1KumSxNR0SfbLk66N9"
      },
      {
        "album_group": "single",
        "album_type": "single",
        "artists": [
          {
            "external_urls": {
              "spotify": "https://open.spotify.com/artist/5F2Bwl7Is7KVwTbNbMclIS"
            },
            "href": "https://api.spotify.com/v1/artists/5F2Bwl7Is7KVwTbNbMclIS",
            "id": "5F2Bwl7Is7KVwTbNbMclIS",
            "name": "Papayo",
            "type": "artist",
            "uri": "spotify:artist:5F2Bwl7Is7KVwTbNbMclIS"
          },
          {
            "external_urls": {
              "spotify": "https://open.spotify.com/artist/0TnOYISbd1XYRBk9myaseg"
            },
            "href": "https://api.spotify.com/v1/artists/0TnOYISbd1XYRBk9myaseg",
            "id": "0TnOYISbd1XYRBk9myaseg",
            "name": "Pitbull",
            "type": "artist",
            "uri": "spotify:artist:0TnOYISbd1XYRBk9myaseg"
          },
          {
            "external_urls": {
              "spotify": "https://open.spotify.com/artist/1XTGADISSMRf8B4TcVGYUC"
            },
            "href": "https://api.spotify.com/v1/artists/1XTGADISSMRf8B4TcVGYUC",
            "id": "1XTGADISSMRf8B4TcVGYUC",
            "name": "Ky-Mani Marley",
            "type": "artist",
            "uri": "spotify:artist:1XTGADISSMRf8B4TcVGYUC"
          }
        ],
        "external_urls": {
          "spotify": "https://open.spotify.com/album/5L7GkSHopAqUeNyyDm3JME"
        },
        "href": "https://api.spotify.com/v1/albums/5L7GkSHopAqUeNyyDm3JME",
        "id": "5L7GkSHopAqUeNyyDm3JME",
        "images": [
          {
            "height": 640,
            "url": "https://i.scdn.co/image/ab67616d0000b273491317918495d3965330309d",
            "width": 640
          },
          {
            "height": 300,
            "url": "https://i.scdn.co/image/ab67616d00001e02491317918495d3965330309d",
            "width": 300
          },
          {
            "height": 64,
            "url": "https://i.scdn.co/image/ab67616d00004851491317918495d3965330309d",
            "width": 64
          }
        ],
        "name": "YAYO",
        "release_date": "2019-04-12",
        "release_date_precision": "day",
        "total_tracks": 1,
        "type": "album",
        "uri": "spotify:album:5L7GkSHopAqUeNyyDm3JME"
      },
      {
        "album_group": "single",
        "album_type": "single",
        "artists": [
          {
            "external_urls": {
              "spotify": "https://open.spotify.com/artist/0TnOYISbd1XYRBk9myaseg"
            },
            "href": "https://api.spotify.com/v1/artists/0TnOYISbd1XYRBk9myaseg",
            "id": "0TnOYISbd1XYRBk9myaseg",
            "name": "Pitbull",
            "type": "artist",
            "uri": "spotify:artist:0TnOYISbd1XYRBk9myaseg"
          },
          {
            "external_urls": {
              "spotify": "https://open.spotify.com/artist/7DgpPXntG6DkNR4hCi4PjP"
            },
            "href": "https://api.spotify.com/v1/artists/7DgpPXntG6DkNR4hCi4PjP",
            "id": "7DgpPXntG6DkNR4hCi4PjP",
            "name": "Chesca",
            "type": "artist",
            "uri": "spotify:artist:7DgpPXntG6DkNR4hCi4PjP"
          }
        ],
        "external_urls": {
          "spotify": "https://open.spotify.com/album/2BlSozZqNW6HVrc6GDOJ99"
        },
        "href": "https://api.spotify.com/v1/albums/2BlSozZqNW6HVrc6GDOJ99",
        "id": "2BlSozZqNW6HVrc6GDOJ99",
        "images": [
          {
            "height": 640,
            "url": "https://i.scdn.co/image/ab67616d0000b273e3657a2b0b9bb69a56f0e852",
            "width": 640
          },
          {
            "height": 300,
            "url": "https://i.scdn.co/image/ab67616d00001e02e3657a2b0b9bb69a56f0e852",
            "width": 300
          },
          {
            "height": 64,
            "url": "https://i.scdn.co/image/ab67616d00004851e3657a2b0b9bb69a56f0e852",
            "width": 64
          }
        ],
        "name": "La Reina De Blanco",
        "release_date": "2019-04-01",
        "release_date_precision": "day",
        "total_tracks": 1,
        "type": "album",
        "uri": "spotify:album:2BlSozZqNW6HVrc6GDOJ99"
      },
      {
        "album_group": "single",
        "album_type": "single",
        "artists": [
          {
            "external_urls": {
              "spotify": "https://open.spotify.com/artist/6t1gpxYbY8OlLA7D2RiikQ"
            },
            "href": "https://api.spotify.com/v1/artists/6t1gpxYbY8OlLA7D2RiikQ",
            "id": "6t1gpxYbY8OlLA7D2RiikQ",
            "name": "Loud Luxury",
            "type": "artist",
            "uri": "spotify:artist:6t1gpxYbY8OlLA7D2RiikQ"
          },
          {
            "external_urls": {
              "spotify": "https://open.spotify.com/artist/0TnOYISbd1XYRBk9myaseg"
            },
            "href": "https://api.spotify.com/v1/artists/0TnOYISbd1XYRBk9myaseg",
            "id": "0TnOYISbd1XYRBk9myaseg",
            "name": "Pitbull",
            "type": "artist",
            "uri": "spotify:artist:0TnOYISbd1XYRBk9myaseg"
          },
          {
            "external_urls": {
              "spotify": "https://open.spotify.com/artist/1SupJlEpv7RS2tPNRaHViT"
            },
            "href": "https://api.spotify.com/v1/artists/1SupJlEpv7RS2tPNRaHViT",
            "id": "1SupJlEpv7RS2tPNRaHViT",
            "name": "Nicky Jam",
            "type": "artist",
            "uri": "spotify:artist:1SupJlEpv7RS2tPNRaHViT"
          }
        ],
        "external_urls": {
          "spotify": "https://open.spotify.com/album/2R66I0nzp3NnuUlzIGWQ5P"
        },
        "href": "https://api.spotify.com/v1/albums/2R66I0nzp3NnuUlzIGWQ5P",
        "id": "2R66I0nzp3NnuUlzIGWQ5P",
        "images": [
          {
            "height": 640,
            "url": "https://i.scdn.co/image/ab67616d0000b27350dfd64d272711bf90175a81",
            "width": 640
          },
          {
            "height": 300,
            "url": "https://i.scdn.co/image/ab67616d00001e0250dfd64d272711bf90175a81",
            "width": 300
          },
          {
            "height": 64,
            "url": "https://i.scdn.co/image/ab67616d0000485150dfd64d272711bf90175a81",
            "width": 64
          }
        ],
        "name": "Body On My",
        "release_date": "2019-03-29",
        "release_date_precision": "day",
        "total_tracks": 1,
        "type": "album",
        "uri": "spotify:album:2R66I0nzp3NnuUlzIGWQ5P"
      },
      {
        "album_group": "single",
        "album_type": "single",
        "artists": [
          {
            "external_urls": {
              "spotify": "https://open.spotify.com/artist/0TnOYISbd1XYRBk9myaseg"
            },
            "href": "https://api.spotify.com/v1/artists/0TnOYISbd1XYRBk9myaseg",
            "id": "0TnOYISbd1XYRBk9myaseg",
            "name": "Pitbull",
            "type": "artist",
            "uri": "spotify:artist:0TnOYISbd1XYRBk9myaseg"
          },
          {
            "external_urls": {
              "spotify": "https://open.spotify.com/artist/6iSZjc4kOoKZKiBXK5HbwD"
            },
            "href": "https://api.spotify.com/v1/artists/6iSZjc4kOoKZKiBXK5HbwD",
            "id": "6iSZjc4kOoKZKiBXK5HbwD",
            "name": "El Chombo",
            "type": "artist",
            "uri": "spotify:artist:6iSZjc4kOoKZKiBXK5HbwD"
          },
          {
            "external_urls": {
              "spotify": "https://open.spotify.com/artist/790FomKkXshlbRYZFtlgla"
            },
            "href": "https://api.spotify.com/v1/artists/790FomKkXshlbRYZFtlgla",
            "id": "790FomKkXshlbRYZFtlgla",
            "name": "KAROL G",
            "type": "artist",
            "uri": "spotify:artist:790FomKkXshlbRYZFtlgla"
          }
        ],
        "external_urls": {
          "spotify": "https://open.spotify.com/album/0zikfBnGCRCt6Iq9JurD9K"
        },
        "href": "https://api.spotify.com/v1/albums/0zikfBnGCRCt6Iq9JurD9K",
        "id": "0zikfBnGCRCt6Iq9JurD9K",
        "images": [
          {
            "height": 640,
            "url": "https://i.scdn.co/image/9a541ffa7afc3cf188a64cf0cfd3ddde6fa226a1",
            "width": 640
          },
          {
            "height": 300,
            "url": "https://i.scdn.co/image/c7cfe575bba03f4d555ebe1f120de3e938459ad2",
            "width": 300
          },
          {
            "height": 64,
            "url": "https://i.scdn.co/image/2bff06c21f8c192582085d724df265b9d7e29109",
            "width": 64
          }
        ],
        "name": "Dame Tu Cosita (Remixes)",
        "release_date": "2019-02-22",
        "release_date_precision": "day",
        "total_tracks": 3,
        "type": "album",
        "uri": "spotify:album:0zikfBnGCRCt6Iq9JurD9K"
      },
      {
        "album_group": "single",
        "album_type": "single",
        "artists": [
          {
            "external_urls": {
              "spotify": "https://open.spotify.com/artist/0TnOYISbd1XYRBk9myaseg"
            },
            "href": "https://api.spotify.com/v1/artists/0TnOYISbd1XYRBk9myaseg",
            "id": "0TnOYISbd1XYRBk9myaseg",
            "name": "Pitbull",
            "type": "artist",
            "uri": "spotify:artist:0TnOYISbd1XYRBk9myaseg"
          }
        ],
        "external_urls": {
          "spotify": "https://open.spotify.com/album/03Q7a7ubckjhqYwLwhAAiF"
        },
        "href": "https://api.spotify.com/v1/albums/03Q7a7ubckjhqYwLwhAAiF",
        "id": "03Q7a7ubckjhqYwLwhAAiF",
        "images": [
          {
            "height": 640,
            "url": "https://i.scdn.co/image/ab67616d0000b273686c49aaddf0e71f0a253864",
            "width": 640
          },
          {
            "height": 300,
            "url": "https://i.scdn.co/image/ab67616d00001e02686c49aaddf0e71f0a253864",
            "width": 300
          },
          {
            "height": 64,
            "url": "https://i.scdn.co/image/ab67616d00004851686c49aaddf0e71f0a253864",
            "width": 64
          }
        ],
        "name": "Quiero Saber",
        "release_date": "2018-10-25",
        "release_date_precision": "day",
        "total_tracks": 1,
        "type": "album",
        "uri": "spotify:album:03Q7a7ubckjhqYwLwhAAiF"
      },
      {
        "album_group": "single",
        "album_type": "single",
        "artists": [
          {
            "external_urls": {
              "spotify": "https://open.spotify.com/artist/0TnOYISbd1XYRBk9myaseg"
            },
            "href": "https://api.spotify.com/v1/artists/0TnOYISbd1XYRBk9myaseg",
            "id": "0TnOYISbd1XYRBk9myaseg",
            "name": "Pitbull",
            "type": "artist",
            "uri": "spotify:artist:0TnOYISbd1XYRBk9myaseg"
          },
          {
            "external_urls": {
              "spotify": "https://open.spotify.com/artist/6iSZjc4kOoKZKiBXK5HbwD"
            },
            "href": "https://api.spotify.com/v1/artists/6iSZjc4kOoKZKiBXK5HbwD",
            "id": "6iSZjc4kOoKZKiBXK5HbwD",
            "name": "El Chombo",
            "type": "artist",
            "uri": "spotify:artist:6iSZjc4kOoKZKiBXK5HbwD"
          },
          {
            "external_urls": {
              "spotify": "https://open.spotify.com/artist/790FomKkXshlbRYZFtlgla"
            },
            "href": "https://api.spotify.com/v1/artists/790FomKkXshlbRYZFtlgla",
            "id": "790FomKkXshlbRYZFtlgla",
            "name": "KAROL G",
            "type": "artist",
            "uri": "spotify:artist:790FomKkXshlbRYZFtlgla"
          }
        ],
        "external_urls": {
          "spotify": "https://open.spotify.com/album/7dJ4pXK49eLqcSuak45kDH"
        },
        "href": "https://api.spotify.com/v1/albums/7dJ4pXK49eLqcSuak45kDH",
        "id": "7dJ4pXK49eLqcSuak45kDH",
        "images": [
          {
            "height": 640,
            "url": "https://i.scdn.co/image/9eb6c6dc9d4ac31c085949854b93b425458a594d",
            "width": 640
          },
          {
            "height": 300,
            "url": "https://i.scdn.co/image/68583a6e3ab3fbfb8a72bf9c7938314e699e6718",
            "width": 300
          },
          {
            "height": 64,
            "url": "https://i.scdn.co/image/fe47db6c3a6766d69befed06ebd516729d81807c",
            "width": 64
          }
        ],
        "name": "Dame Tu Cosita (Radio Version)",
        "release_date": "2018-08-24",
        "release_date_precision": "day",
        "total_tracks": 1,
        "type": "album",
        "uri": "spotify:album:7dJ4pXK49eLqcSuak45kDH"
      },
      {
        "album_group": "single",
        "album_type": "single",
        "artists": [
          {
            "external_urls": {
              "spotify": "https://open.spotify.com/artist/1ackd5XprZEkH3McKbQD51"
            },
            "href": "https://api.spotify.com/v1/artists/1ackd5XprZEkH3McKbQD51",
            "id": "1ackd5XprZEkH3McKbQD51",
            "name": "Juan Magán",
            "type": "artist",
            "uri": "spotify:artist:1ackd5XprZEkH3McKbQD51"
          },
          {
            "external_urls": {
              "spotify": "https://open.spotify.com/artist/0TnOYISbd1XYRBk9myaseg"
            },
            "href": "https://api.spotify.com/v1/artists/0TnOYISbd1XYRBk9myaseg",
            "id": "0TnOYISbd1XYRBk9myaseg",
            "name": "Pitbull",
            "type": "artist",
            "uri": "spotify:artist:0TnOYISbd1XYRBk9myaseg"
          },
          {
            "external_urls": {
              "spotify": "https://open.spotify.com/artist/1pPmIToKXyGdsCF6LmqLmI"
            },
            "href": "https://api.spotify.com/v1/artists/1pPmIToKXyGdsCF6LmqLmI",
            "id": "1pPmIToKXyGdsCF6LmqLmI",
            "name": "Rich The Kid",
            "type": "artist",
            "uri": "spotify:artist:1pPmIToKXyGdsCF6LmqLmI"
          }
        ],
        "external_urls": {
          "spotify": "https://open.spotify.com/album/0pSoTEjs0sMEUoyhUijJtL"
        },
        "href": "https://api.spotify.com/v1/albums/0pSoTEjs0sMEUoyhUijJtL",
        "id": "0pSoTEjs0sMEUoyhUijJtL",
        "images": [
          {
            "height": 640,
            "url": "https://i.scdn.co/image/ab67616d0000b2731cf74b511bc430657e6f57d4",
            "width": 640
          },
          {
            "height": 300,
            "url": "https://i.scdn.co/image/ab67616d00001e021cf74b511bc430657e6f57d4",
            "width": 300
          },
          {
            "height": 64,
            "url": "https://i.scdn.co/image/ab67616d000048511cf74b511bc430657e6f57d4",
            "width": 64
          }
        ],
        "name": "Echa Pa Aca",
        "release_date": "2018-08-03",
        "release_date_precision": "day",
        "total_tracks": 1,
        "type": "album",
        "uri": "spotify:album:0pSoTEjs0sMEUoyhUijJtL"
      },
      {
        "album_group": "single",
        "album_type": "single",
        "artists": [
          {
            "external_urls": {
              "spotify": "https://open.spotify.com/artist/0TnOYISbd1XYRBk9myaseg"
            },
            "href": "https://api.spotify.com/v1/artists/0TnOYISbd1XYRBk9myaseg",
            "id": "0TnOYISbd1XYRBk9myaseg",
            "name": "Pitbull",
            "type": "artist",
            "uri": "spotify:artist:0TnOYISbd1XYRBk9myaseg"
          }
        ],
        "external_urls": {
          "spotify": "https://open.spotify.com/album/2zriqRg67gFAr1HhhgGjmx"
        },
        "href": "https://api.spotify.com/v1/albums/2zriqRg67gFAr1HhhgGjmx",
        "id": "2zriqRg67gFAr1HhhgGjmx",
        "images": [
          {
            "height": 640,
            "url": "https://i.scdn.co/image/ab67616d0000b27377a84ec72d4a6bb2a119657c",
            "width": 640
          },
          {
            "height": 300,
            "url": "https://i.scdn.co/image/ab67616d00001e0277a84ec72d4a6bb2a119657c",
            "width": 300
          },
          {
            "height": 64,
            "url": "https://i.scdn.co/image/ab67616d0000485177a84ec72d4a6bb2a119657c",
            "width": 64
          }
        ],
        "name": "Free Free Free",
        "release_date": "2018-07-06",
        "release_date_precision": "day",
        "total_tracks": 1,
        "type": "album",
        "uri": "spotify:album:2zriqRg67gFAr1HhhgGjmx"
      },
      {
        "album_group": "single",
        "album_type": "single",
        "artists": [
          {
            "external_urls": {
              "spotify": "https://open.spotify.com/artist/0TnOYISbd1XYRBk9myaseg"
            },
            "href": "https://api.spotify.com/v1/artists/0TnOYISbd1XYRBk9myaseg",
            "id": "0TnOYISbd1XYRBk9myaseg",
            "name": "Pitbull",
            "type": "artist",
            "uri": "spotify:artist:0TnOYISbd1XYRBk9myaseg"
          }
        ],
        "external_urls": {
          "spotify": "https://open.spotify.com/album/5jEhSJbVizVdf6Ypr8cIuV"
        },
        "href": "https://api.spotify.com/v1/albums/5jEhSJbVizVdf6Ypr8cIuV",
        "id": "5jEhSJbVizVdf6Ypr8cIuV",
        "images": [
          {
            "height": 640,
            "url": "https://i.scdn.co/image/ab67616d0000b2736fa5ec16a4dd4db6280ab0a9",
            "width": 640
          },
          {
            "height": 300,
            "url": "https://i.scdn.co/image/ab67616d00001e026fa5ec16a4dd4db6280ab0a9",
            "width": 300
          },
          {
            "height": 64,
            "url": "https://i.scdn.co/image/ab67616d000048516fa5ec16a4dd4db6280ab0a9",
            "width": 64
          }
        ],
        "name": "So Sorry",
        "release_date": "2018-06-29",
        "release_date_precision": "day",
        "total_tracks": 1,
        "type": "album",
        "uri": "spotify:album:5jEhSJbVizVdf6Ypr8cIuV"
      }
    ],
    "limit": 10,
    "next": "https://api.spotify.com/v1/artists/0TnOYISbd1XYRBk9myaseg/albums?offset=15&limit=10&include_groups=single,appears_on&market=ES",
    "offset": 5,
    "previous": "https://api.spotify.com/v1/artists/0TnOYISbd1XYRBk9myaseg/albums?offset=0&limit=10&include_groups=single,appears_on&market=ES",
    "total": 610
  }